<?xml version="1.0" encoding="utf-8"?>
<!-- Generator: Adobe Illustrator 21.0.0, SVG Export Plug-In . SVG Version: 6.00 Build 0)  -->
<svg version="1.1" id="Слой_1" xmlns="http://www.w3.org/2000/svg" xmlns:xlink="http://www.w3.org/1999/xlink" x="0px" y="0px"
	 viewBox="0 0 100 125" style="enable-background:new 0 0 100 125;" xml:space="preserve">
<style type="text/css">
	.st0{fill:none;}
	.st1{fill:#666667;}
	.st2{fill:#6E98FE;}
</style>
<polygon class="st0" points="29.5,69.8 16.3,76.4 29.5,83 70.3,83 83.6,76.4 70.4,69.8 "/>
<path class="st1" d="M91.3,75.6L91.3,75.6c-0.1-0.2-0.1-0.3-0.2-0.5c0,0,0-0.1-0.1-0.1c-0.1-0.1-0.1-0.2-0.2-0.2c0,0,0-0.1-0.1-0.1
	c-0.1-0.1-0.2-0.2-0.3-0.3c-0.1,0-0.1-0.1-0.2-0.1l-18-9c-0.3-0.2-0.7-0.3-1.1-0.3H28.9c-0.4,0-0.7,0.1-1.1,0.3l-18,9
	c-0.1,0-0.2,0.1-0.2,0.1c-0.1,0.1-0.2,0.2-0.3,0.3c0,0,0,0.1-0.1,0.1c-0.1,0-0.2,0.1-0.3,0.3c-0.1,0.1-0.1,0.2-0.2,0.4v0.1
	c0,0.1-0.1,0.2-0.1,0.3V76c0,0.1,0,0.3,0,0.4v7.5c0,1.3,1.1,2.4,2.4,2.4s2.4-1.1,2.4-2.4v-3.6l13.2,6.6v5.7c0,1.3,1.1,2.4,2.4,2.4
	s2.4-1.1,2.4-2.4v-4.8h37.2v4.8c0,1.3,1.1,2.4,2.4,2.4s2.4-1.1,2.4-2.4v-5.7l13.2-6.6v3.6c0,1.3,1.1,2.4,2.4,2.4s2.4-1.1,2.4-2.4
	v-7.5c0-0.1,0-0.3,0-0.4v-0.1C91.4,75.8,91.3,75.7,91.3,75.6z M70.3,83H29.5l-13.2-6.6l13.2-6.6h40.9l13.2,6.6L70.3,83z"/>
<g>
	<path class="st2" d="M56.5,25.4v21c0,0.6,0.3,1.3,0.7,1.7l9,9c0.5,0.5,1.1,0.7,1.7,0.7c0.6,0,1.2-0.2,1.7-0.7
		c0.9-0.9,0.9-2.5,0-3.4l-8.3-8.3v-19l14.3-14.3c0.9-0.9,0.9-2.5,0-3.4c-0.9-0.9-2.5-0.9-3.4,0l-15,15
		C56.8,24.2,56.5,24.8,56.5,25.4z"/>
	<path class="st2" d="M47.3,37.4l-8.5,16.9c-0.4,0.8-0.4,1.7,0.1,2.4c0.4,0.7,1.2,1.1,2,1.1h12c1.3,0,2.4-1.1,2.4-2.4
		c0-1.3-1.1-2.4-2.4-2.4h-8.1l7.3-14.5c0.3-0.6,0.3-1.4,0-2.1l-15-30c-0.6-1.2-2-1.7-3.2-1.1c-1.2,0.6-1.7,2-1.1,3.2L47.3,37.4z"/>
	<path class="st2" d="M52.9,21.8c4.6,0,8.4-3.8,8.4-8.4c0-4.6-3.8-8.4-8.4-8.4c-4.6,0-8.4,3.8-8.4,8.4C44.5,18,48.3,21.8,52.9,21.8z
		 M52.9,9.8c2,0,3.6,1.6,3.6,3.6S54.9,17,52.9,17s-3.6-1.6-3.6-3.6S50.9,9.8,52.9,9.8z"/>
</g>
</svg>
