<?xml version="1.0" encoding="utf-8"?>
<!-- Generator: Adobe Illustrator 21.0.0, SVG Export Plug-In . SVG Version: 6.00 Build 0)  -->
<svg version="1.1" id="Слой_1" xmlns="http://www.w3.org/2000/svg" xmlns:xlink="http://www.w3.org/1999/xlink" x="0px" y="0px"
	 viewBox="0 0 40.5 38.2" style="enable-background:new 0 0 40.5 38.2;" xml:space="preserve">
<style type="text/css">
	.st0{fill:#6E98FE;}
	.st1{fill:#666667;}
</style>
<path class="st0" d="M31.9,32v2.5c0,0.3-0.2,0.5-0.5,0.5h-27c-0.3,0-0.5-0.2-0.5-0.5V15h5v-2h-5V9.5C3.9,9.2,4.2,9,4.4,9
	c0,0,2.1,0,2.5,0c0.3,0,1.4,0,2,0V7h-2H4.4C3.1,7,1.9,8.1,1.9,9.5V14v20.5c0,1.4,1.1,2.5,2.5,2.5h27c1.4,0,2.5-1.1,2.5-2.5V32H31.9z
	"/>
<path class="st1" d="M36.4,32h-27c-1.4,0-2.5-1.1-2.5-2.5v-25C6.9,3.1,8.1,2,9.4,2h27c1.4,0,2.5,1.1,2.5,2.5v25
	C38.9,30.9,37.8,32,36.4,32z M9.4,4C9.2,4,8.9,4.2,8.9,4.5v25c0,0.3,0.2,0.5,0.5,0.5h27c0.3,0,0.5-0.2,0.5-0.5v-25
	c0-0.3-0.2-0.5-0.5-0.5C36.4,4,9.4,4,9.4,4z M37.9,10h-30c-0.6,0-1-0.4-1-1s0.4-1,1-1h30c0.6,0,1,0.4,1,1S38.5,10,37.9,10z M12.9,6
	c-0.6,0-1-0.4-1-1V1c0-0.6,0.4-1,1-1s1,0.4,1,1v4C13.9,5.6,13.5,6,12.9,6z M32.9,6c-0.6,0-1-0.4-1-1V1c0-0.6,0.4-1,1-1s1,0.4,1,1v4
	C33.9,5.6,33.5,6,32.9,6z"/>
<g>
	<circle class="st0" cx="12.9" cy="18" r="1"/>
	<circle class="st0" cx="12.9" cy="22" r="1"/>
	<circle class="st0" cx="12.9" cy="26" r="1"/>
	<circle class="st0" cx="28.9" cy="14" r="1"/>
	<circle class="st0" cx="28.9" cy="18" r="1"/>
	<circle class="st0" cx="28.9" cy="22" r="1"/>
	<circle class="st0" cx="28.9" cy="26" r="1"/>
	<circle class="st0" cx="32.9" cy="14" r="1"/>
	<circle class="st0" cx="32.9" cy="18" r="1"/>
	<circle class="st0" cx="32.9" cy="22" r="1"/>
	<circle class="st0" cx="20.9" cy="14" r="1"/>
	<circle class="st0" cx="20.9" cy="18" r="1"/>
	<circle class="st0" cx="20.9" cy="22" r="1"/>
	<circle class="st0" cx="20.9" cy="26" r="1"/>
	<circle class="st0" cx="16.9" cy="14" r="1"/>
	<circle class="st0" cx="16.9" cy="18" r="1"/>
	<circle class="st0" cx="16.9" cy="22" r="1"/>
	<circle class="st0" cx="16.9" cy="26" r="1"/>
	<circle class="st0" cx="24.9" cy="14" r="1"/>
	<circle class="st0" cx="24.9" cy="18" r="1"/>
	<circle class="st0" cx="24.9" cy="22" r="1"/>
	<circle class="st0" cx="24.9" cy="26" r="1"/>
</g>
</svg>
