<?xml version="1.0" encoding="utf-8"?>
<!-- Generator: Adobe Illustrator 21.0.0, SVG Export Plug-In . SVG Version: 6.00 Build 0)  -->
<svg version="1.1" id="Слой_1" xmlns="http://www.w3.org/2000/svg" xmlns:xlink="http://www.w3.org/1999/xlink" x="0px" y="0px"
	 viewBox="0 0 100 125" style="enable-background:new 0 0 100 125;" xml:space="preserve">
<style type="text/css">
	.st0{fill:#DB1212;}
</style>
<g>
	<path class="st0" d="M50,20c-19.3,0-35,15.7-35,35c0,8.6,3.2,16.9,8.9,23.3l1.5,1.7h49.2l1.5-1.7C81.8,71.9,85,63.6,85,55
		C85,35.7,69.3,20,50,20z M70,70H30c-3.2-4.3-5-9.6-5-15c0-13.8,11.2-25,25-25s25,11.2,25,25C75,60.4,73.2,65.7,70,70z"/>
	<polygon class="st0" points="50,46.7 41,34.7 30.3,65 39.7,65 44,55.3 50,63.3 56,55.3 60.3,65 69.7,65 59,34.7 	"/>
</g>
</svg>
